[
  {
    "_id": 101,
    "accountID": "919567608",
    "email": "s534570@nwmissouri.edu",
    "dateCreated": "2018-7-01",
    
    "accountType": "savings",
    "paid": true
  },
  {
    "_id": 102,
    "accountID": "919573149",
    "email": "s534627@nwmissouri.edu",
    "dateCreated": "2018-7-01",
    
    "accountType": "savings",
    "paid": true
  },
  {
    "_id": 103,
    "accountID": "919575851",
    "email": "s534686@nwmissouri.edu",
    "dateCreated": "2018-7-01",
    
    "accountType": "savings",
    "paid": true
  },
  {
    "_id": 104,
    "accountID": "919576749",
    "email": "s534624@nwmissouri.edu",
    "dateCreated": "2018-7-01",
    
    "accountType": "savings",
    "paid": true
  },
  {
    "_id": 912,
    "email": "s533975@nwmissouri.edu",
    "datePlaced": "2018-9-01",
    "dateShipped": "2018-9-04",
    "paymentType": "Cash",
    "paid": true
  },
  {
    "_id": 913,
    "email": "s533975@nwmissouri.edu",
    "datePlaced": "2018-11-01",
    "dateShipped": "2018-11-04",
    "paymentType": "Cash",
    "paid": true
  },
  {
    "_id": 921,
    "email": "S533901@nwmissouri.edu",
    "datePlaced": "2018-7-01",
    "dateShipped": "2018-7-04",
    "paymentType": "Cash",
    "paid": true
  },
  {
    "_id": 922,
    "email": "S533901@nwmissouri.edu",
    "datePlaced": "2018-9-01",
    "dateShipped": "2018-9-04",
    "paymentType": "Cash",
    "paid": true
  },
  {
    "_id": 923,
    "email": "S533901@nwmissouri.edu",
    "datePlaced": "2018-11-01",
    "dateShipped": "2018-11-04",
    "paymentType": "Cash",
    "paid": true
  },
  {
    "_id": 931,
    "email": "s533708@nwmissouri.edu",
    "datePlaced": "2018-7-01",
    "dateShipped": "2018-7-04",
    "paymentType": "Cash",
    "paid": true
  },
  {
    "_id": 932,
    "email": "s533708@nwmissouri.edu",
    "datePlaced": "2018-9-01",
    "dateShipped": "2018-9-04",
    "paymentType": "Cash",
    "paid": true
  },
  {
    "_id": 933,
    "email": "s533708@nwmissouri.edu",
    "datePlaced": "2018-11-01",
    "dateShipped": "2018-11-04",
    "paymentType": "Cash",
    "paid": true
  }
]